Pipeline/build/pipeline.vcd
$date
	Fri Dec 22 15:20:09 2023
$end
$version
	Icarus Verilog
$end
$timescale
	1ps
$end
$scope module Pipeline_tb $end
$var reg 1 ! clk $end
$var reg 1 " reset $end
$var integer 32 # i [31:0] $end
$scope module Pipeline $end
$var wire 6 $ ALUCU_funct [5:0] $end
$var wire 32 % ALU_b [31:0] $end
$var wire 3 & ALU_mod [2:0] $end
$var wire 32 ' Add1_a [31:0] $end
$var wire 32 ( Add1_b [31:0] $end
$var wire 32 ) Add2_b [31:0] $end
$var wire 1 * DM_R $end
$var wire 1 + DM_W $end
$var wire 32 , DM_W_data [31:0] $end
$var wire 32 - Inst_Addr [31:0] $end
$var wire 1 . MUX32_2_1_c $end
$var wire 1 / MUX32_2_2_c $end
$var wire 32 0 MUX32_2_2_i0 [31:0] $end
$var wire 1 1 MUX32_2_3_c $end
$var wire 32 2 MUX32_2_3_i0 [31:0] $end
$var wire 32 3 MUX32_2_3_i1 [31:0] $end
$var wire 32 4 MUX32_4_1_i0 [31:0] $end
$var wire 32 5 MUX32_4_1_i3 [31:0] $end
$var wire 1 6 MUX5_1_c $end
$var wire 32 7 NPC2 [31:0] $end
$var wire 1 8 PCSrc $end
$var wire 32 9 PC_in [31:0] $end
$var wire 1 : RF_W $end
$var wire 5 ; RF_W_Reg [4:0] $end
$var wire 32 < RF_W_data [31:0] $end
$var wire 32 = SHL32_in [31:0] $end
$var wire 1 ! clk $end
$var wire 1 " reset $end
$var wire 1 > ZF $end
$var wire 32 ? Sig32 [31:0] $end
$var wire 16 @ Sig16 [15:0] $end
$var wire 32 A SHL32_out [31:0] $end
$var wire 28 B SHL26_out [27:0] $end
$var wire 26 C SHL26_in [25:0] $end
$var wire 5 D Rt [4:0] $end
$var wire 5 E Rs [4:0] $end
$var wire 1 F RegWr $end
$var wire 1 G RegDst $end
$var wire 32 H RF_R_data2 [31:0] $end
$var wire 32 I RF_R_data1 [31:0] $end
$var wire 5 J RF_R_Reg2 [4:0] $end
$var wire 5 K RF_R_Reg1 [4:0] $end
$var wire 32 L PC_out [31:0] $end
$var wire 6 M OP_Code [5:0] $end
$var wire 32 N NPC3 [31:0] $end
$var wire 32 O NPC1 [31:0] $end
$var wire 1 P MemtoReg $end
$var wire 1 Q MemWr $end
$var wire 1 R MemRd $end
$var wire 5 S MUX5_1_out [4:0] $end
$var wire 5 T MUX5_1_i1 [4:0] $end
$var wire 5 U MUX5_1_i0 [4:0] $end
$var wire 32 V MUX32_4_1_out [31:0] $end
$var wire 32 W MUX32_4_1_i2 [31:0] $end
$var wire 32 X MUX32_4_1_i1 [31:0] $end
$var wire 2 Y MUX32_4_1_c [1:0] $end
$var wire 32 Z MUX32_2_3_out [31:0] $end
$var wire 32 [ MUX32_2_2_out [31:0] $end
$var wire 32 \ MUX32_2_2_i1 [31:0] $end
$var wire 32 ] MUX32_2_1_out [31:0] $end
$var wire 32 ^ MUX32_2_1_i1 [31:0] $end
$var wire 32 _ MUX32_2_1_i0 [31:0] $end
$var wire 32 ` MAWBout [31:0] $end
$var wire 1 a Jump $end
$var wire 32 b Inst [31:0] $end
$var wire 16 c Imm16 [15:0] $end
$var wire 32 d IDEXout [31:0] $end
$var wire 32 e IDEX_Rtout [31:0] $end
$var wire 6 f Func [5:0] $end
$var wire 32 g FIIDout [31:0] $end
$var wire 32 h EXMAout [31:0] $end
$var wire 32 i EXMA_Rtout [31:0] $end
$var wire 32 j DM_R_data [31:0] $end
$var wire 32 k DM_Addr [31:0] $end
$var wire 1 l Branch $end
$var wire 32 m Add2_c [31:0] $end
$var wire 32 n Add2_a [31:0] $end
$var wire 32 o Add1_c [31:0] $end
$var wire 1 p ALU_z $end
$var wire 1 q ALU_o $end
$var wire 32 r ALU_c [31:0] $end
$var wire 32 s ALU_a [31:0] $end
$var wire 1 t ALUSrc $end
$var wire 2 u ALUOp [1:0] $end
$var wire 3 v ALUCtrl [2:0] $end
$scope module add1 $end
$var wire 32 w a [31:0] $end
$var wire 32 x b [31:0] $end
$var wire 32 y c [31:0] $end
$upscope $end
$scope module add2 $end
$var wire 32 z b [31:0] $end
$var wire 32 { c [31:0] $end
$var wire 32 | a [31:0] $end
$upscope $end
$scope module alu $end
$var wire 32 } b [31:0] $end
$var wire 3 ~ mod [2:0] $end
$var wire 32 !" a [31:0] $end
$var reg 32 "" out [31:0] $end
$var reg 1 q overflow $end
$var reg 1 p zero $end
$upscope $end
$scope module alucu $end
$var wire 6 #" funct [5:0] $end
$var wire 2 $" ALUOp [1:0] $end
$var reg 3 %" ALUCtrl [2:0] $end
$upscope $end
$scope module dm $end
$var wire 1 * R $end
$var wire 1 + W $end
$var wire 32 &" W_data [31:0] $end
$var wire 32 '" Addr [31:0] $end
$var reg 32 (" R_data [31:0] $end
$var integer 32 )" fd1 [31:0] $end
$var integer 32 *" i [31:0] $end
$upscope $end
$scope module exma $end
$var wire 32 +" ALUOutin [31:0] $end
$var wire 1 p Flagin $end
$var wire 32 ," NPC2in [31:0] $end
$var wire 32 -" NPC3in [31:0] $end
$var wire 1 ! clk $end
$var wire 32 ." Rtin [31:0] $end
$var wire 32 /" IRin [31:0] $end
$var reg 32 0" ALUOut [31:0] $end
$var reg 32 1" ALUOutout [31:0] $end
$var reg 1 2" Flag $end
$var reg 1 > Flagout $end
$var reg 32 3" IR [31:0] $end
$var reg 32 4" IRout [31:0] $end
$var reg 32 5" NPC2 [31:0] $end
$var reg 32 6" NPC2out [31:0] $end
$var reg 32 7" NPC3 [31:0] $end
$var reg 32 8" NPC3out [31:0] $end
$var reg 32 9" Rt [31:0] $end
$var reg 32 :" Rtout [31:0] $end
$upscope $end
$scope module exmcu $end
$var wire 32 ;" Inst [31:0] $end
$var reg 2 <" ALUOp [1:0] $end
$var reg 1 t ALUSrc $end
$var reg 6 =" OP_Code [5:0] $end
$upscope $end
$scope module fiid $end
$var wire 32 >" NPC1in [31:0] $end
$var wire 1 ! clk $end
$var wire 32 ?" IRin [31:0] $end
$var reg 32 @" IRout [31:0] $end
$var reg 16 A" Imm16 [15:0] $end
$var reg 32 B" Inst [31:0] $end
$var reg 32 C" NPC1 [31:0] $end
$var reg 32 D" NPC1out [31:0] $end
$var reg 6 E" OP_Code [5:0] $end
$var reg 5 F" Rs [4:0] $end
$var reg 5 G" Rt [4:0] $end
$upscope $end
$scope module idex $end
$var wire 32 H" IRin [31:0] $end
$var wire 32 I" NPC1in [31:0] $end
$var wire 1 ! clk $end
$var wire 32 J" Rtin [31:0] $end
$var wire 32 K" Rsin [31:0] $end
$var wire 32 L" Imm32in [31:0] $end
$var reg 32 M" IR [31:0] $end
$var reg 32 N" IRout [31:0] $end
$var reg 32 O" Imm32 [31:0] $end
$var reg 32 P" Imm32out [31:0] $end
$var reg 32 Q" NPC1 [31:0] $end
$var reg 32 R" NPC1out [31:0] $end
$var reg 32 S" Rs [31:0] $end
$var reg 32 T" Rsout [31:0] $end
$var reg 32 U" Rt [31:0] $end
$var reg 32 V" Rtout [31:0] $end
$upscope $end
$scope module im $end
$var wire 32 W" Addr [31:0] $end
$var reg 32 X" Inst [31:0] $end
$upscope $end
$scope module mamcu $end
$var wire 32 Y" Inst [31:0] $end
$var reg 1 l Branch $end
$var reg 1 a Jump $end
$var reg 1 R MemRd $end
$var reg 1 Q MemWr $end
$var reg 6 Z" OP_Code [5:0] $end
$upscope $end
$scope module mawb $end
$var wire 32 [" ALUOutin [31:0] $end
$var wire 32 \" IRin [31:0] $end
$var wire 32 ]" MEMOutin [31:0] $end
$var wire 1 ! clk $end
$var reg 32 ^" ALUOut [31:0] $end
$var reg 32 _" ALUOutout [31:0] $end
$var reg 32 `" IR [31:0] $end
$var reg 32 a" IRout [31:0] $end
$var reg 32 b" MEMOut [31:0] $end
$var reg 32 c" MEMOutout [31:0] $end
$upscope $end
$scope module mux32_2_1 $end
$var wire 1 . Ctrl $end
$var wire 32 d" i0 [31:0] $end
$var wire 32 e" i1 [31:0] $end
$var wire 32 f" out [31:0] $end
$upscope $end
$scope module mux32_2_2 $end
$var wire 1 / Ctrl $end
$var wire 32 g" i0 [31:0] $end
$var wire 32 h" i1 [31:0] $end
$var wire 32 i" out [31:0] $end
$upscope $end
$scope module mux32_2_3 $end
$var wire 1 1 Ctrl $end
$var wire 32 j" i0 [31:0] $end
$var wire 32 k" i1 [31:0] $end
$var wire 32 l" out [31:0] $end
$upscope $end
$scope module mux32_4_1 $end
$var wire 2 m" Ctrl [1:0] $end
$var wire 32 n" i0 [31:0] $end
$var wire 32 o" i1 [31:0] $end
$var wire 32 p" i2 [31:0] $end
$var wire 32 q" i3 [31:0] $end
$var wire 32 r" out [31:0] $end
$upscope $end
$scope module mux5 $end
$var wire 1 6 Ctrl $end
$var wire 5 s" i0 [4:0] $end
$var wire 5 t" i1 [4:0] $end
$var wire 5 u" out [4:0] $end
$upscope $end
$scope module pc $end
$var wire 32 v" addrin [31:0] $end
$var wire 1 ! clk $end
$var wire 1 " reset $end
$var reg 32 w" addrout [31:0] $end
$upscope $end
$scope module rf $end
$var wire 5 x" R_Reg1 [4:0] $end
$var wire 5 y" R_Reg2 [4:0] $end
$var wire 1 : W $end
$var wire 5 z" W_Reg [4:0] $end
$var wire 32 {" W_data [31:0] $end
$var wire 1 ! clk $end
$var wire 32 |" R_data2 [31:0] $end
$var wire 32 }" R_data1 [31:0] $end
$var integer 32 ~" fd1 [31:0] $end
$var integer 32 !# i [31:0] $end
$upscope $end
$scope module shl2_26 $end
$var wire 26 "# in [25:0] $end
$var wire 28 ## out [27:0] $end
$upscope $end
$scope module shl2_32 $end
$var wire 32 $# in [31:0] $end
$var wire 32 %# out [31:0] $end
$upscope $end
$scope module sigext $end
$var wire 16 &# in [15:0] $end
$var wire 32 '# out [31:0] $end
$upscope $end
$scope module wbmcu $end
$var wire 32 (# Inst [31:0] $end
$var reg 1 P MemtoReg $end
$var reg 6 )# OP_Code [5:0] $end
$var reg 1 G RegDst $end
$var reg 1 F RegWr $end
$upscope $end
$upscope $end
$upscope $end
$enddefinitions $end
$comment Show the parameter values. $end
$dumpall
$end
#0
$dumpvars
bx )#
bx (#
b0xxxxxxxxxxxxxxxx '#
bx &#
bx00 %#
bx $#
bx00 ##
bx "#
b100000 !#
b10 ~"
bx }"
bx |"
bx {"
bx z"
bx y"
bx x"
b0 w"
b100 v"
bx u"
bx t"
bx s"
bz r"
bz q"
bx p"
bx o"
bz n"
b0 m"
b100 l"
bz k"
b100 j"
bx i"
bx h"
bx g"
bx f"
bx e"
bx d"
bx c"
bx b"
bx a"
bx `"
bx _"
bx ^"
bx ]"
bx \"
bx ["
bx Z"
bx Y"
b1000000000000000000000000001 X"
b0 W"
bx V"
bx U"
bx T"
bx S"
bx R"
bx Q"
bx P"
bx O"
bx N"
bx M"
b0xxxxxxxxxxxxxxxx L"
bx K"
bx J"
bx I"
bx H"
bx G"
bx F"
bx E"
bx D"
bx C"
bx B"
bx A"
bx @"
b1000000000000000000000000001 ?"
b100 >"
bx ="
b0 <"
bx ;"
bx :"
bx 9"
bx 8"
bx 7"
bx 6"
bx 5"
bx 4"
bx 3"
x2"
bx 1"
bx 0"
bx /"
bx ."
bx00 -"
bx ,"
bx +"
bx *"
bx )"
bx ("
bx '"
bx &"
b100 %"
b0 $"
bx #"
bx ""
bx !"
b100 ~
bx }
bx |
bx {
bx00 z
b100 y
b0 x
b100 w
b100 v
b0 u
0t
bx s
bx r
xq
xp
b100 o
bx n
bx m
0l
bx k
bx j
bx i
bx h
bx g
bx f
bx e
bx d
bx c
b1000000000000000000000000001 b
0a
bx `
bx _
bx ^
bx ]
bx \
bx [
b100 Z
b0 Y
bx X
bx W
bz V
bx U
bx T
bx S
0R
0Q
0P
bx O
bx00 N
bx M
b0 L
bx K
bx J
bx I
bx H
0G
0F
bx E
bx D
bx C
bx00 B
bx00 A
bx @
b0xxxxxxxxxxxxxxxx ?
x>
bx =
bx <
bx ;
0:
b100 9
08
bx 7
06
bz 5
bz 4
bz 3
b100 2
01
bx 0
0/
0.
b0 -
bx ,
0+
0*
bx00 )
b0 (
b100 '
b100 &
bx %
bx $
bx #
1"
0!
$end
#5000
0"
#10000
b100 C"
b1000000000000000000000000001 B"
b0xxxxxxxxxxxxxxxx O"
bx00 7"
b10000100001010000000000000001 b
b10000100001010000000000000001 ?"
b10000100001010000000000000001 X"
b1000 9
b1000 v"
b1000 Z
b1000 l"
b100 -
b100 W"
b1000 2
b1000 j"
b1000 o
b1000 y
b1000 >"
b100 (
b100 x
b100 L
b100 w"
1!
b0 #
#15000
b100000 !#
0!
b1 #
#20000
b1 H
b1 J"
b1 |"
b1 I
b1 K"
b1 }"
b0xxxxxxxxxxxxxxxx00 )
b0xxxxxxxxxxxxxxxx00 z
b0xxxxxxxxxxxxxxxx00 A
b0xxxxxxxxxxxxxxxx00 %#
b1 ?
b1 L"
b1 '#
b1 @
b1 &#
b0 J
b0 y"
b0 K
b0 x"
bx00 X
bx00 8"
bx00 o"
b0xxxxxxxxxxxxxxxx =
b0xxxxxxxxxxxxxxxx $#
b0xxxxxxxxxxxxxxxx \
b0xxxxxxxxxxxxxxxx P"
b0xxxxxxxxxxxxxxxx h"
b1 c
b1 A"
b0 D
b0 G"
b0 E
b0 F"
b10 M
b10 E"
b100 O
b100 D"
b100 I"
b1100 C"
b1000000000000000000000000001 g
b1000000000000000000000000001 @"
b1000000000000000000000000001 H"
b10000100001010000000000000001 B"
b10000000000010000000000000100 b
b10000000000010000000000000100 ?"
b10000000000010000000000000100 X"
b1100 9
b1100 v"
b1100 Z
b1100 l"
b1000 -
b1000 W"
b1100 2
b1100 j"
b1100 o
b1100 y
b1100 >"
b1000 (
b1000 x
b1000 L
b1000 w"
1!
b10 #
#25000
b100000 !#
0!
b11 #
#30000
b101 J
b101 y"
b100 K
b100 x"
b101 D
b101 G"
b100 E
b100 F"
b100 M
b100 E"
b1100 O
b1100 D"
b1100 I"
b10000100001010000000000000001 g
b10000100001010000000000000001 @"
b10000100001010000000000000001 H"
b10000000000010000000000000100 B"
b1000000000000000000000000001 M"
b1 O"
b1 U"
b1 S"
b100 Q"
b10001000000100000 b
b10001000000100000 ?"
b10001000000100000 X"
b10000 9
b10000 v"
b10000 Z
b10000 l"
b1100 -
b1100 W"
b10000 2
b10000 j"
b10000 o
b10000 y
b10000 >"
b1100 (
b1100 x
b1100 L
b1100 w"
1!
b100 #
#35000
b100000 !#
0!
b101 #
#40000
b100 &
b100 ~
b100 v
b100 %"
0p
0q
b10 H
b10 J"
b10 |"
b100 B
b100 ##
b1 C
b1 "#
b1 $
b1 #"
b1 f
b10 ="
b1000 7
b1000 ,"
b1000 m
b1000 {
b100 )
b100 z
b100 A
b100 %#
b1 %
b1 }
b1 [
b1 i"
b10 r
b10 ""
b10 +"
b100 N
b100 -"
b100 ?
b100 L"
b100 '#
b100 @
b100 &#
b1 J
b1 y"
b0 K
b0 x"
b1000000000000000000000000001 d
b1000000000000000000000000001 /"
b1000000000000000000000000001 ;"
b1000000000000000000000000001 N"
b10000100001010000000000000001 M"
b1 =
b1 $#
b1 \
b1 P"
b1 h"
b1 0
b1 g"
b1 e
b1 ."
b1 V"
b1 s
b1 !"
b1 T"
b100 n
b100 |
b100 R"
b1100 Q"
b100 c
b100 A"
b1 D
b1 G"
b0 E
b0 F"
b10100 C"
b10000000000010000000000000100 g
b10000000000010000000000000100 @"
b10000000000010000000000000100 H"
b10001000000100000 B"
b11000100000000000100010 b
b11000100000000000100010 ?"
b11000100000000000100010 X"
b10100 9
b10100 v"
b10100 Z
b10100 l"
b10000 -
b10000 W"
b10100 2
b10100 j"
b10100 o
b10100 y
b10100 >"
b10000 (
b10000 x
b10000 L
b10000 w"
1!
b110 #
#45000
b100000 !#
0!
b111 #
#50000
1p
b0 r
b0 ""
b0 +"
b110 &
b110 ~
b110 v
b110 %"
b1000000100000 ?
b1000000100000 L"
b1000000100000 '#
b1000000100000 @
b1000000100000 &#
b10000101000000000000000100 N
b10000101000000000000000100 -"
b10000101000000000000000100 B
b10000101000000000000000100 ##
b100001010000000000000001 C
b100001010000000000000001 "#
b1 u
b1 $"
b1 <"
b100 ="
b1000000100000 c
b1000000100000 A"
b0 M
b0 E"
b10100 O
b10100 D"
b10100 I"
b10001000000100000 g
b10001000000100000 @"
b10001000000100000 H"
b11000100000000000100010 B"
b10000100001010000000000000001 d
b10000100001010000000000000001 /"
b10000100001010000000000000001 ;"
b10000100001010000000000000001 N"
b10000000000010000000000000100 M"
b100 O"
b10 U"
b10000 7
b10000 ,"
b10000 m
b10000 {
b1100 n
b1100 |
b1100 R"
02"
b1000000000000000000000000001 3"
b10 0"
b1 9"
b1000 5"
b100 7"
b1000000001000000100100 b
b1000000001000000100100 ?"
b1000000001000000100100 X"
b11000 9
b11000 v"
b11000 Z
b11000 l"
b10100 -
b10100 W"
b11000 2
b11000 j"
b11000 o
b11000 y
b11000 >"
b10100 (
b10100 x
b10100 L
b10100 w"
1!
b1000 #
#55000
b100000 !#
0!
b1001 #
#60000
b100 3
b100 k"
b100 V
b100 r"
11
18
b110 &
b110 ~
b110 v
b110 %"
0p
b11111111111111111111111111111111 r
b11111111111111111111111111111111 ""
b11111111111111111111111111111111 +"
b0 H
b0 J"
b0 |"
b111 I
b111 K"
b111 }"
b1 Y
b1 m"
1a
b10 Z"
b1000000000000010000 N
b1000000000000010000 -"
b1000000000000010000 B
b1000000000000010000 ##
b10000000000000100 C
b10000000000000100 "#
b100 $
b100 #"
b100 f
b1 u
b1 $"
b1 <"
b11100 7
b11100 ,"
b11100 m
b11100 {
b10000 )
b10000 z
b10000 A
b10000 %#
b10 %
b10 }
b10 [
b10 i"
b100010 ?
b100010 L"
b100010 '#
b100010 @
b100010 &#
b10 J
b10 y"
b11 K
b11 x"
0>
12"
b1000000000000000000000000001 h
b1000000000000000000000000001 4"
b1000000000000000000000000001 Y"
b1000000000000000000000000001 \"
b10000100001010000000000000001 3"
b10 k
b10 '"
b10 1"
b10 ["
b0 0"
b1 ,
b1 &"
b1 i
b1 :"
b1000 W
b1000 6"
b1000 p"
b10000 5"
b100 X
b100 8"
b100 o"
b10000101000000000000000100 7"
b10000000000010000000000000100 d
b10000000000010000000000000100 /"
b10000000000010000000000000100 ;"
b10000000000010000000000000100 N"
b10001000000100000 M"
b100 =
b100 $#
b100 \
b100 P"
b100 h"
b1000000100000 O"
b10 0
b10 g"
b10 e
b10 ."
b10 V"
b10100 Q"
b100010 c
b100010 A"
b10 D
b10 G"
b11 E
b11 F"
b11100 C"
b11000100000000000100010 g
b11000100000000000100010 @"
b11000100000000000100010 H"
b1000000001000000100100 B"
b10000100000100101 b
b10000100000100101 ?"
b10000100000100101 X"
b100 9
b100 v"
b100 Z
b100 l"
b11000 -
b11000 W"
b11100 2
b11100 j"
b11100 o
b11100 y
b11100 >"
b11000 (
b11000 x
b11000 L
b11000 w"
1!
b1010 #
#65000
b100000 !#
0!
b1011 #
#70000
b11 r
b11 ""
b11 +"
b10000 9
b10000 v"
b10000 Z
b10000 l"
b1 H
b1 J"
b1 |"
b10 I
b10 K"
b10 }"
b100 &
b100 ~
b100 v
b100 %"
b10000 3
b10000 k"
b10000 V
b10000 r"
b1000000100100 ?
b1000000100100 L"
b1000000100100 '#
b1000000100100 @
b1000000100100 &#
b0 J
b0 y"
b1 K
b1 x"
b1000100000010000000 N
b1000100000010000000 -"
b1000100000010000000 B
b1000100000010000000 ##
b10001000000100000 C
b10001000000100000 "#
b100000 $
b100000 #"
b100000 f
b10 u
b10 $"
b10 <"
b0 ="
b100000010000000 )
b100000010000000 z
b100000010000000 A
b100000010000000 %#
1l
b10 Y
b10 m"
0a
b100 Z"
b1000000100100 c
b1000000100100 A"
b0 D
b0 G"
b1 E
b1 F"
b11100 O
b11100 D"
b11100 I"
b1000000001000000100100 g
b1000000001000000100100 @"
b1000000001000000100100 H"
b10000100000100101 B"
b10001000000100000 d
b10001000000100000 /"
b10001000000100000 ;"
b10001000000100000 N"
b11000100000000000100010 M"
b1000000100000 =
b1000000100000 $#
b1000000100000 \
b1000000100000 P"
b1000000100000 h"
b100010 O"
b0 U"
b111 S"
b100000010010100 7
b100000010010100 ,"
b100000010010100 m
b100000010010100 {
b10100 n
b10100 |
b10100 R"
1>
02"
b10000100001010000000000000001 h
b10000100001010000000000000001 4"
b10000100001010000000000000001 Y"
b10000100001010000000000000001 \"
b10000000000010000000000000100 3"
b0 k
b0 '"
b0 1"
b0 ["
b11111111111111111111111111111111 0"
b10 9"
b10000 W
b10000 6"
b10000 p"
b11100 5"
b10000101000000000000000100 X
b10000101000000000000000100 8"
b10000101000000000000000100 o"
b1000000000000010000 7"
b1000000000000000000000000001 `"
b10 ^"
b10000100001010000000000000001 b
b10000100001010000000000000001 ?"
b10000100001010000000000000001 X"
b100 -
b100 W"
b1000 2
b1000 j"
b1000 o
b1000 y
b1000 >"
b100 (
b100 x
b100 L
b100 w"
1!
b1100 #
#75000
b100000 !#
0!
b1101 #
#80000
b10100 9
b10100 v"
b10100 Z
b10100 l"
b0 ;
b0 z"
b0 S
b0 u"
bz 3
bz k"
bz V
bz r"
01
08
b110 &
b110 ~
b110 v
b110 %"
b10 H
b10 J"
b10 |"
b1 I
b1 K"
b1 }"
b10 )#
b0 T
b0 t"
b0 U
b0 s"
b10 <
b10 {"
b10 ]
b10 f"
b0 Y
b0 m"
1l
b1100010000000000010001000 N
b1100010000000000010001000 -"
b1100010000000000010001000 B
b1100010000000000010001000 ##
b11000100000000000100010 C
b11000100000000000100010 "#
b100010 $
b100010 #"
b100010 f
b10 u
b10 $"
b10 <"
b10011100 7
b10011100 ,"
b10011100 m
b10011100 {
b10001000 )
b10001000 z
b10001000 A
b10001000 %#
b0 %
b0 }
b0 [
b0 i"
b111 r
b111 ""
b111 +"
b100000100101 ?
b100000100101 L"
b100000100101 '#
b100000100101 @
b100000100101 &#
b1 J
b1 y"
b0 K
b0 x"
b1000000000000000000000000001 `
b1000000000000000000000000001 a"
b1000000000000000000000000001 (#
b10000100001010000000000000001 `"
b10 _
b10 _"
b10 d"
b0 ^"
0>
b10000000000010000000000000100 h
b10000000000010000000000000100 4"
b10000000000010000000000000100 Y"
b10000000000010000000000000100 \"
b10001000000100000 3"
b11111111111111111111111111111111 k
b11111111111111111111111111111111 '"
b11111111111111111111111111111111 1"
b11111111111111111111111111111111 ["
b11 0"
b10 ,
b10 &"
b10 i
b10 :"
b11100 W
b11100 6"
b11100 p"
b100000010010100 5"
b1000000000000010000 X
b1000000000000010000 8"
b1000000000000010000 o"
b1000100000010000000 7"
b11000100000000000100010 d
b11000100000000000100010 /"
b11000100000000000100010 ;"
b11000100000000000100010 N"
b1000000001000000100100 M"
b100010 =
b100010 $#
b100010 \
b100010 P"
b100010 h"
b1000000100100 O"
b0 0
b0 g"
b0 e
b0 ."
b0 V"
b1 U"
b111 s
b111 !"
b111 T"
b10 S"
b11100 Q"
b100000100101 c
b100000100101 A"
b1 D
b1 G"
b0 E
b0 F"
b10100 C"
b10000100000100101 g
b10000100000100101 @"
b10000100000100101 H"
b10000100001010000000000000001 B"
b11000100000000000100010 b
b11000100000000000100010 ?"
b11000100000000000100010 X"
b10000 -
b10000 W"
b10100 2
b10100 j"
b10100 o
b10100 y
b10100 >"
b10000 (
b10000 x
b10000 L
b10000 w"
1!
b1110 #
#85000
b100000 !#
0!
b1111 #
#90000
1p
b1 H
b1 J"
b1 |"
b0 &
b0 ~
b0 v
b0 %"
b101 ;
b101 z"
b101 S
b101 u"
b1 ?
b1 L"
b1 '#
b1 @
b1 &#
b101 J
b101 y"
b100 K
b100 x"
b100000000100000010010000 N
b100000000100000010010000 -"
b100000000100000010010000 B
b100000000100000010010000 ##
b1000000001000000100100 C
b1000000001000000100100 "#
b100100 $
b100100 #"
b100100 f
b10 u
b10 $"
b10 <"
b100000010010000 )
b100000010010000 z
b100000010010000 A
b100000010010000 %#
b1 %
b1 }
b1 [
b1 i"
b0 r
b0 ""
b0 +"
0l
b0 Z"
b100 )#
b101 U
b101 s"
b0 <
b0 {"
b0 ]
b0 f"
b1 c
b1 A"
b101 D
b101 G"
b100 E
b100 F"
b100 M
b100 E"
b10100 O
b10100 D"
b10100 I"
b10000100001010000000000000001 g
b10000100001010000000000000001 @"
b10000100001010000000000000001 H"
b11000100000000000100010 B"
b1000000001000000100100 d
b1000000001000000100100 /"
b1000000001000000100100 ;"
b1000000001000000100100 N"
b10000100000100101 M"
b1000000100100 =
b1000000100100 $#
b1000000100100 \
b1000000100100 P"
b1000000100100 h"
b100000100101 O"
b1 0
b1 g"
b1 e
b1 ."
b1 V"
b10 U"
b10 s
b10 !"
b10 T"
b1 S"
b100000010101100 7
b100000010101100 ,"
b100000010101100 m
b100000010101100 {
b11100 n
b11100 |
b11100 R"
b10001000000100000 h
b10001000000100000 4"
b10001000000100000 Y"
b10001000000100000 \"
b11000100000000000100010 3"
b11 k
b11 '"
b11 1"
b11 ["
b111 0"
b0 9"
b100000010010100 W
b100000010010100 6"
b100000010010100 p"
b10011100 5"
b1000100000010000000 X
b1000100000010000000 8"
b1000100000010000000 o"
b1100010000000000010001000 7"
b10000100001010000000000000001 `
b10000100001010000000000000001 a"
b10000100001010000000000000001 (#
b10000000000010000000000000100 `"
b0 _
b0 _"
b0 d"
b11111111111111111111111111111111 ^"
b1000000001000000100100 b
b1000000001000000100100 ?"
b1000000001000000100100 X"
b11000 9
b11000 v"
b11000 Z
b11000 l"
b10100 -
b10100 W"
b11000 2
b11000 j"
b11000 o
b11000 y
b11000 >"
b10100 (
b10100 x
b10100 L
b10100 w"
1!
b10000 #
#95000
b100000 !#
0!
b10001 #
#100000
b1 ;
b1 z"
b1 S
b1 u"
b1 &
b1 ~
b1 v
b1 %"
b0 H
b0 J"
b0 |"
b111 I
b111 K"
b111 }"
b1 U
b1 s"
b11111111111111111111111111111111 <
b11111111111111111111111111111111 {"
b11111111111111111111111111111111 ]
b11111111111111111111111111111111 f"
b1000010000010010100 N
b1000010000010010100 -"
b1000010000010010100 B
b1000010000010010100 ##
b10000100000100101 C
b10000100000100101 "#
b100101 $
b100101 #"
b100101 f
b10 u
b10 $"
b10 <"
b10000010110000 7
b10000010110000 ,"
b10000010110000 m
b10000010110000 {
b10000010010100 )
b10000010010100 z
b10000010010100 A
b10000010010100 %#
b10 %
b10 }
b10 [
b10 i"
0p
b11 r
b11 ""
b11 +"
b100010 ?
b100010 L"
b100010 '#
b100010 @
b100010 &#
b10 J
b10 y"
b11 K
b11 x"
b10000000000010000000000000100 `
b10000000000010000000000000100 a"
b10000000000010000000000000100 (#
b10001000000100000 `"
b11111111111111111111111111111111 _
b11111111111111111111111111111111 _"
b11111111111111111111111111111111 d"
b11 ^"
12"
b11000100000000000100010 h
b11000100000000000100010 4"
b11000100000000000100010 Y"
b11000100000000000100010 \"
b1000000001000000100100 3"
b111 k
b111 '"
b111 1"
b111 ["
b0 0"
b0 ,
b0 &"
b0 i
b0 :"
b1 9"
b10011100 W
b10011100 6"
b10011100 p"
b100000010101100 5"
b1100010000000000010001000 X
b1100010000000000010001000 8"
b1100010000000000010001000 o"
b100000000100000010010000 7"
b10000100000100101 d
b10000100000100101 /"
b10000100000100101 ;"
b10000100000100101 N"
b10000100001010000000000000001 M"
b100000100101 =
b100000100101 $#
b100000100101 \
b100000100101 P"
b100000100101 h"
b1 O"
b10 0
b10 g"
b10 e
b10 ."
b10 V"
b1 U"
b1 s
b1 !"
b1 T"
b10100 Q"
b100010 c
b100010 A"
b10 D
b10 G"
b11 E
b11 F"
b0 M
b0 E"
b11100 C"
b11000100000000000100010 g
b11000100000000000100010 @"
b11000100000000000100010 H"
b1000000001000000100100 B"
b10000100000100101 b
b10000100000100101 ?"
b10000100000100101 X"
b11100 9
b11100 v"
b11100 Z
b11100 l"
b11000 -
b11000 W"
b11100 2
b11100 j"
b11100 o
b11100 y
b11100 >"
b11000 (
b11000 x
b11000 L
b11000 w"
1!
b10010 #
#105000
b100000 !#
0!
b10011 #
